464%
(4135,-10786)
(4134,-10775)
(4135,-10771)
(4137,-10773)
(4137,-10771)
(4134,-10766)
(4132,-10760)
(4131,-10761)
(4131,-10765)
(4129,-10764)
(4129,-10753)
(4127,-10750)
(4126,-10735)
(4115,-10709)
(4116,-10714)
(4120,-10725)
(4112,-10724)
(4110,-10706)
(4109,-10703)
(4109,-10695)
(4106,-10682)
(4100,-10677)
(4096,-10685)
(4095,-10684)
(4095,-10678)
(4097,-10677)
(4100,-10662)
(4112,-10701)
(4113,-10703)
(4104,-10670)
(4098,-10653)
(4097,-10648)
(4098,-10656)
(4097,-10658)
(4095,-10666)
(4093,-10661)
(4093,-10657)
(4091,-10658)
(4093,-10653)
(4095,-10642)
(4092,-10630)
(4092,-10636)
(4090,-10634)
(4089,-10635)
(4088,-10630)
(4090,-10624)
(4074,-10569)
(4070,-10554)
(4061,-10524)
(4060,-10518)
(4059,-10518)
(4059,-10522)
(4053,-10516)
(4052,-10510)
(4050,-10508)
(4051,-10516)
(4050,-10513)
(4047,-10513)
(4041,-10523)
(4041,-10512)
(4042,-10506)
(4047,-10503)
(4049,-10505)
(4045,-10496)
(4045,-10497)
(4044,-10496)
(4043,-10492)
(4043,-10490)
(4038,-10487)
(4037,-10488)
(4039,-10490)
(4037,-10494)
(4026,-10497)
(4019,-10495)
(4016,-10488)
(4016,-10484)
(4014,-10488)
(4012,-10486)
(4004,-10485)
(4005,-10486)
(4005,-10492)
(4003,-10493)
(4002,-10497)
(4001,-10497)
(4000,-10500)
(3997,-10494)
(3995,-10479)
(3992,-10469)
(3987,-10465)
(3988,-10469)
(3987,-10471)
(3983,-10470)
(3981,-10465)
(3980,-10470)
(3978,-10468)
(3978,-10466)
(3979,-10461)
(3981,-10464)
(3984,-10459)
(3985,-10453)
(3988,-10456)
(3988,-10452)
(3989,-10449)
(3989,-10441)
(3987,-10439)
(3984,-10443)
(3981,-10439)
(3979,-10444)
(3975,-10445)
(3973,-10441)
(3976,-10439)
(3979,-10431)
(3980,-10436)
(3981,-10430)
(3982,-10427)
(3987,-10425)
(3989,-10433)
(3991,-10435)
(3993,-10453)
(3995,-10458)
(4001,-10441)
(4000,-10439)
(4001,-10437)
(4002,-10440)
(4011,-10441)
(4014,-10445)
(4016,-10445)
(4019,-10447)
(4019,-10458)
(4020,-10459)
(4021,-10455)
(4023,-10457)
(4022,-10472)
(4023,-10474)
(4024,-10466)
(4025,-10465)
(4023,-10477)
(4024,-10479)
(4025,-10477)
(4026,-10463)
(4025,-10430)
(4026,-10425)
(4028,-10421)
(4026,-10411)
(4025,-10410)
(4023,-10412)
(4022,-10411)
(4022,-10408)
(4025,-10406)
(4023,-10388)
(4023,-10394)
(4024,-10398)
(4022,-10398)
(4021,-10391)
(4020,-10393)
(4020,-10398)
(4018,-10401)
(4017,-10401)
(4015,-10400)
(4015,-10402)
(4013,-10400)
(4012,-10402)
(4010,-10402)
(4010,-10393)
(4012,-10389)
(4013,-10393)
(4015,-10392)
(4015,-10397)
(4017,-10393)
(4019,-10393)
(4020,-10387)
(4017,-10385)
(4016,-10382)
(4014,-10367)
(4016,-10359)
(4015,-10355)
(4016,-10346)
(4018,-10353)
(4022,-10383)
(4023,-10384)
(4023,-10383)
(4021,-10357)
(4020,-10350)
(4021,-10367)
(4018,-10340)
(4017,-10323)
(4019,-10317)
(4017,-10315)
(4017,-10304)
(4016,-10301)
(4011,-10302)
(4008,-10296)
(4006,-10285)
(4005,-10284)
(4003,-10286)
(3999,-10280)
(3994,-10266)
(3991,-10253)
(3987,-10244)
(3981,-10235)
(3979,-10225)
(3978,-10234)
(3977,-10233)
(3974,-10239)
(3974,-10233)
(3978,-10227)
(3978,-10219)
(3972,-10208)
(3971,-10211)
(3972,-10218)
(3971,-10220)
(3969,-10214)
(3969,-10211)
(3970,-10209)
(3968,-10196)
(3970,-10195)
(3971,-10202)
(3968,-10183)
(3964,-10181)
(3960,-10187)
(3959,-10189)
(3961,-10196)
(3962,-10200)
(3961,-10207)
(3951,-10237)
(3951,-10233)
(3950,-10231)
(3946,-10234)
(3944,-10232)
(3940,-10232)
(3937,-10235)
(3936,-10241)
(3937,-10253)
(3939,-10254)
(3941,-10265)
(3942,-10272)
(3946,-10276)
(3949,-10285)
(3950,-10292)
(3949,-10289)
(3945,-10286)
(3944,-10279)
(3943,-10282)
(3940,-10277)
(3938,-10268)
(3936,-10264)
(3936,-10261)
(3929,-10263)
(3929,-10270)
(3932,-10284)
(3929,-10324)
(3930,-10316)
(3931,-10309)
(3932,-10310)
(3932,-10322)
(3933,-10324)
(3934,-10327)
(3932,-10334)
(3933,-10340)
(3935,-10337)
(3938,-10342)
(3940,-10341)
(3940,-10345)
(3941,-10354)
(3941,-10357)
(3942,-10359)
(3941,-10368)
(3942,-10371)
(3940,-10368)
(3940,-10360)
(3938,-10361)
(3937,-10360)
(3936,-10344)
(3932,-10346)
(3929,-10340)
(3928,-10348)
(3925,-10344)
(3926,-10337)
(3930,-10329)
(3921,-10335)
(3915,-10335)
(3914,-10335)
(3916,-10337)
(3916,-10343)
(3915,-10352)
(3914,-10355)
(3916,-10357)
(3916,-10360)
(3915,-10362)
(3914,-10361)
(3913,-10357)
(3913,-10338)
(3912,-10335)
(3908,-10331)
(3908,-10335)
(3905,-10332)
(3906,-10328)
(3905,-10328)
(3895,-10348)
(3895,-10350)
(3895,-10352)
(3894,-10356)
(3893,-10362)
(3892,-10365)
(3891,-10368)
(3893,-10377)
(3892,-10383)
(3891,-10385)
(3889,-10386)
(3887,-10392)
(3887,-10390)
(3891,-10378)
(3887,-10367)
(3886,-10367)
(3884,-10372)
(3883,-10372)
(3883,-10378)
(3880,-10385)
(3880,-10383)
(3881,-10374)
(3880,-10372)
(3877,-10377)
(3875,-10381)
(3875,-10377)
(3877,-10373)
(3878,-10367)
(3876,-10364)
(3875,-10360)
(3874,-10353)
(3873,-10348)
(3870,-10346)
(3866,-10337)
(3865,-10347)
(3864,-10350)
(3863,-10358)
(3865,-10364)
(3865,-10368)
(3868,-10366)
(3870,-10369)
(3871,-10370)
(3871,-10376)
(3870,-10377)
(3870,-10381)
(3868,-10384)
(3868,-10375)
(3867,-10373)
(3865,-10374)
(3860,-10374)
(3859,-10378)
(3857,-10380)
(3855,-10391)
(3859,-10406)
(3862,-10405)
(3867,-10396)
(3867,-10399)
(3871,-10397)
(3873,-10401)
(3875,-10400)
(3875,-10403)
(3877,-10405)
(3870,-10401)
(3868,-10402)
(3864,-10408)
(3861,-10415)
(3861,-10421)
(3865,-10443)
(3873,-10447)
(3878,-10461)
(3879,-10457)
(3880,-10457)
(3880,-10467)
(3887,-10491)
(3889,-10500)
(3891,-10499)
(3892,-10501)
(3887,-10501)
(3887,-10508)
(3887,-10524)
(3887,-10529)
(3889,-10531)
(3890,-10525)
(3891,-10525)
(3891,-10532)
(3893,-10534)
(3895,-10538)
(3897,-10549)
(3901,-10555)
(3904,-10549)
(3910,-10547)
(3917,-10555)
(3918,-10553)
(3921,-10556)
(3924,-10556)
(3929,-10566)
(3929,-10571)
(3929,-10580)
(3933,-10594)
(3937,-10624)
(3935,-10633)
(3930,-10644)
(3929,-10650)
(3929,-10662)
(3929,-10692)
(3929,-10702)
(3931,-10713)
(3933,-10714)
(3934,-10711)
(3937,-10712)
(3938,-10709)
(3944,-10708)
(3945,-10711)
(3945,-10717)
(3946,-10719)
(3947,-10718)
(3947,-10721)
(3951,-10727)
(3953,-10732)
(3955,-10734)
(3956,-10732)
(3963,-10739)
(3959,-10727)
(3961,-10722)
(3967,-10720)
(3967,-10716)
(3970,-10713)
(3971,-10714)
(3974,-10711)
(3976,-10712)
(3978,-10710)
(3984,-10710)
(3984,-10712)
(3982,-10714)
(3982,-10715)
(3982,-10718)
(3979,-10719)
(3972,-10727)
(3970,-10738)
(3972,-10744)
(3975,-10747)
(3978,-10745)
(3983,-10747)
(3985,-10751)
(3981,-10751)
(3977,-10751)
(3978,-10758)
(3979,-10760)
(3981,-10765)
(3971,-10755)
(3968,-10763)
(3967,-10778)
(3968,-10781)
(3968,-10775)
(3969,-10775)
(3971,-10782)
(3967,-10786)
(3957,-10789)
(3948,-10785)
(3938,-10760)
(3936,-10762)
(3932,-10759)
(3926,-10772)
(3916,-10774)
(3910,-10782)
(3909,-10789)